…
``` r
# Explore number estimates by age group and injury mechanism
tbi_age_num <- tbi_age %>%
  group_by(age_group, injury_mechanism) %>%
  summarise(total_number_est = sum(number_est, na.rm = TRUE), .groups = "drop")

tbi_age_num
```

    ## # A tibble: 77 × 3
    ##    age_group injury_mechanism                                  total_number_est
    ##    <chr>     <chr>                                                        <dbl>
    ##  1 0-17      Assault                                                      26506
    ##  2 0-17      Intentional self-harm                                            0
    ##  3 0-17      Motor Vehicle Crashes                                        53899
    ##  4 0-17      Other or no mechanism specified                              60639
    ##  5 0-17      Other unintentional injury, mechanism unspecified            59228
    ##  6 0-17      Unintentional Falls                                         405173
    ##  7 0-17      Unintentionally struck by or against an object              231273
    ##  8 0-4       Assault                                                       1956
    ##  9 0-4       Intentional self-harm                                            0
    ## 10 0-4       Motor Vehicle Crashes                                         6521
    ## # ℹ 67 more rows

``` r
# Explore number and rate estimates by year and injury mechanism
tbi_year_num <- tbi_year %>%
  group_by(year, injury_mechanism) %>%
  summarise(total_number_est = sum(number_est, na.rm = TRUE), .groups = "drop")

tbi_year_num
```

    ## # A tibble: 72 × 3
    ##     year injury_mechanism                                  total_number_est
    ##    <dbl> <chr>                                                        <dbl>
    ##  1  2006 Assault                                                     198648
    ##  2  2006 Intentional self-harm                                        17032
    ##  3  2006 Motor vehicle crashes                                       353926
    ##  4  2006 Other or no mechanism specified                             155093
    ##  5  2006 Other unintentional injury, mechanism unspecified           145074
    ##  6  2006 Total                                                            0
    ##  7  2006 Unintentional falls                                         739658
    ##  8  2006 Unintentionally struck by or against an object              274765
    ##  9  2007 Assault                                                     196344
    ## 10  2007 Intentional self-harm                                        17380
    ## # ℹ 62 more rows

``` r
# Explore number of diagnoses by year, service, and severity
tbi_military_num <- tbi_military %>%
  group_by(year, service, severity) %>%
  summarise(total_diagnosed = sum(diagnosed, na.rm = TRUE), .groups = "drop")

tbi_military_num
```

    ## # A tibble: 180 × 4
    ##     year service   severity         total_diagnosed
    ##    <dbl> <chr>     <chr>                      <dbl>
    ##  1  2006 Air Force Mild                        2247
    ##  2  2006 Air Force Moderate                     226
    ##  3  2006 Air Force Not Classifiable              41
    ##  4  2006 Air Force Penetrating                   26
    ##  5  2006 Air Force Severe                        30
    ##  6  2006 Army      Mild                        7769
    ##  7  2006 Army      Moderate                     949
    ##  8  2006 Army      Not Classifiable             163
    ##  9  2006 Army      Penetrating                  234
    ## 10  2006 Army      Severe                       139
    ## # ℹ 170 more rows
…
tbi_age
```

    ## # A tibble: 122 × 4
    ##    type                     injury_mechanism      age_group number_est
    ##    <chr>                    <fct>                 <fct>          <dbl>
    ##  1 Lethal TBI (2% of cases) Assault               0-4              322
    ##  2 Lethal TBI (2% of cases) Assault               15-24           1165
    ##  3 Lethal TBI (2% of cases) Assault               25-34           1110
    ##  4 Lethal TBI (2% of cases) Assault               35-44            732
    ##  5 Lethal TBI (2% of cases) Assault               45-54            633
    ##  6 Lethal TBI (2% of cases) Assault               5-14             117
    ##  7 Lethal TBI (2% of cases) Assault               55-64            410
    ##  8 Lethal TBI (2% of cases) Assault               65-74            241
    ##  9 Lethal TBI (2% of cases) Assault               75+              174
    ## 10 Lethal TBI (2% of cases) Intentional Self-harm 15-24           2171
    ## # ℹ 112 more rows
…
